{
  "object_attributes": {
    "ref": "239356-kiran/fix-Rails/FindEach",
    "created_at": "2025-01-28 22:37:30 UTC",
    "before_sha": "bbacd0e78b105acc7893ca9ae1b117d03a4a0130",
    "status": "failed",
    "url": "https://gitlab.com/gitlab-org/gitlab/-/pipelines/1645720467",
    "iid": 3735087,
    "queued_duration": 2,
    "stages": [
      "sync",
      "pre-merge"
    ],
    "name": "Ruby 3.3.6 MR (community contribution)",
    "variables": [],
    "id": 1645720467,
    "detailed_status": "failed",
    "source": "merge_request_event",
    "tag": false,
    "sha": "bbacd0e78b105acc7893ca9ae1b117d03a4a0130",
    "duration": 16,
    "finished_at": "2025-01-28 22:37:48 UTC"
  },
  "project": {
    "default_branch": "master",
    "name": "GitLab",
    "git_http_url": "https://gitlab.com/gitlab-org/gitlab.git",
    "git_ssh_url": "git@gitlab.com:gitlab-org/gitlab.git",
    "id": 278964,
    "namespace": "GitLab.org",
    "avatar_url": "https://gitlab.com/uploads/-/system/project/avatar/278964/project_avatar.png",
    "path_with_namespace": "gitlab-org/gitlab",
    "description": "GitLab is an open source end-to-end software development platform with built-in version control, issue tracking, code review, CI/CD, and more. Self-host GitLab on your own servers, in a container, or on a cloud provider.",
    "ci_config_path": "",
    "web_url": "https://gitlab.com/gitlab-org/gitlab",
    "visibility_level": 20
  },
  "builds": [
    {
      "environment": null,
      "allow_failure": true,
      "name": "dont-interrupt-me",
      "manual": true,
      "finished_at": null,
      "duration": null,
      "status": "manual",
      "queued_duration": null,
      "artifacts_file": {
        "filename": null,
        "size": null
      },
      "id": 8978406797,
      "started_at": null,
      "runner": null,
      "stage": "sync",
      "when": "manual",
      "failure_reason": null,
      "created_at": "2025-01-28 22:37:30 UTC",
      "user": {
        "username": "nao.hashizume",
        "name": "Nao Hashizume",
        "email": "[REDACTED]",
        "avatar_url": "https://gitlab.com/uploads/-/system/user/avatar/11762197/avatar.png",
        "id": 11762197
      }
    },
    {
      "allow_failure": false,
      "status": "failed",
      "started_at": "2025-01-28 22:37:32 UTC",
      "when": "on_success",
      "manual": false,
      "artifacts_file": {
        "size": null,
        "filename": null
      },
      "runner": {
        "id": 11574068,
        "runner_type": "instance_type",
        "tags": [
          "gitlab-org"
        ],
        "is_shared": true,
        "active": true,
        "description": "1-green.shared-gitlab-org.runners-manager.gitlab.com"
      },
      "queued_duration": 0.894043,
      "created_at": "2025-01-28 22:37:30 UTC",
      "id": 8978406800,
      "finished_at": "2025-01-28 22:37:48 UTC",
      "name": "pre-merge-checks",
      "duration": 16.525623,
      "environment": null,
      "stage": "pre-merge",
      "user": {
        "email": "[REDACTED]",
        "username": "nao.hashizume",
        "avatar_url": "https://gitlab.com/uploads/-/system/user/avatar/11762197/avatar.png",
        "name": "Nao Hashizume",
        "id": 11762197
      },
      "failure_reason": "script_failure"
    }
  ],
  "user": {
    "username": "nao.hashizume",
    "avatar_url": "https://gitlab.com/uploads/-/system/user/avatar/11762197/avatar.png",
    "id": 11762197,
    "email": "[REDACTED]",
    "name": "Nao Hashizume"
  },
  "merge_request": {
    "target_project_id": 1,
    "id": 357625613,
    "iid": 456,
    "source_project_id": 41372369,
    "source_branch": "239356-kiran/fix-Rails/FindEach",
    "detailed_merge_status": "ci_must_pass",
    "title": "Fix Rails/FindEach offenses",
    "target_branch": "master",
    "state": "opened",
    "url": "https://gitlab.com/gitlab-org/gitlab/-/merge_requests/179053",
    "merge_status": "can_be_merged"
  },
  "object_kind": "pipeline",
  "commit": {
    "timestamp": "2025-01-28T22:37:17+00:00",
    "author": {
      "email": "nhashizume@gitlab.com",
      "name": "Nao Hashizume"
    },
    "message": "Merge branch '239356-kiran/fix-Rails/FindEach' into 'master' \n\nFix Rails/FindEach offenses\n\nSee merge request https://gitlab.com/gitlab-org/gitlab/-/merge_requests/179053\n\nMerged-by: Nao Hashizume <nhashizume@gitlab.com>\nApproved-by: Nao Hashizume <nhashizume@gitlab.com>\nApproved-by: Michał Zając <mzajac@gitlab.com>\nCo-authored-by: Kiran Kumawat <kiran.kumawat1991@gmail.com>",
    "id": "bbacd0e78b105acc7893ca9ae1b117d03a4a0130",
    "title": "Merge branch '239356-kiran/fix-Rails/FindEach' into 'master' ",
    "url": "https://gitlab.com/gitlab-org/gitlab/-/commit/bbacd0e78b105acc7893ca9ae1b117d03a4a0130"
  }
}
